Education
…
Importing Packages

library(tidyverse)
library(here)
library(readr)

Medicine Equality in Education

First we load the cleaned data and filter out all patients that haven’t registered education.

med_edu_na <- read_csv(here("data/med_data_tidy.csv")) |> filter(!is.na(edu))
med_edu <- read_csv(here("data/med_data_tidy.csv")) |> filter(!is.na(edu))
med_edu 

# A tibble: 798 × 10
     age death sex    diag_group   diag_class income   edu charges  totcst race 
   <dbl> <dbl> <chr>  <chr>        <chr>      <chr>  <dbl>   <dbl>   <dbl> <chr>
 1    86     1 male   Lung Cancer  Cancer     <NA>      12      NA     NA  black
 2    42     1 female Colon Cancer Cancer     $25-$…    11    9914     NA  hisp…
 3    64     1 female ARF/MOSF w/… ARF/MOSF   $25-$…    22  283303 156674. white
 4    42     1 male   MOSF w/Malig ARF/MOSF   >$50k     18  320843 165179. white
 5    42     1 male   Lung Cancer  Cancer     >$50k     16    4173   2648. white
 6    32     0 female Cirrhosis    COPD/CHF/… <NA>      14  231119 101868. black
 7    52     1 male   Cirrhosis    COPD/CHF/… $11-$…     8   13414   8931. white
 8    59     1 male   CHF          COPD/CHF/… >$50k     12   19852  11542. white
 9    72     1 male   Colon Cancer Cancer     <NA>      10   24612  14902. hisp…
10    65     1 female COPD         COPD/CHF/… under…    12   84901  40449. white
# ℹ 788 more rows
…
