Price effect
…
Load data

meta_data <- read_csv("../data/med_data_tidy.csv")

Preparing the data for analysis

clean_data <- meta_data |>
  select(age, death, sex, diag_group, diag_class, income) |>
  mutate(income = gsub("\\$", "", income)) |> #To remove $ from the data
  na.omit()

clean_data

# A tibble: 651 × 6
     age death sex    diag_group        diag_class         income   
   <dbl> <dbl> <chr>  <chr>             <chr>              <chr>    
 1    42     1 female Colon Cancer      Cancer             25-50k   
 2    64     1 female ARF/MOSF w/Sepsis ARF/MOSF           25-50k   
 3    42     1 male   MOSF w/Malig      ARF/MOSF           >50k     
 4    42     1 male   Lung Cancer       Cancer             >50k     
 5    52     1 male   Cirrhosis         COPD/CHF/Cirrhosis 11-25k   
 6    59     1 male   CHF               COPD/CHF/Cirrhosis >50k     
 7    65     1 female COPD              COPD/CHF/Cirrhosis under 11k
 8    59     0 female ARF/MOSF w/Sepsis ARF/MOSF           25-50k   
 9    77     1 male   CHF               COPD/CHF/Cirrhosis >50k     
10    61     1 male   Colon Cancer      Cancer             >50k     
# ℹ 641 more rows
…
clean_data <- clean_data |>
  mutate(
    income_class = case_when(income == "under 11k" ~ "income very poor",
      income == "11-25k"    ~ "income poor",
      income == "25-50k"    ~ "income medium",
      income == ">50k"      ~ "income wealthy"
    ),
    income_num = case_when(income == "under 11k" ~ 11,
      income == "11-25k"    ~ 18,
      income == "25-50k"    ~ 37.5,
      income == ">50k"      ~ 50))

clean_data

# A tibble: 651 × 8
     age death sex    diag_group       diag_class income income_class income_num
   <dbl> <dbl> <chr>  <chr>            <chr>      <chr>  <chr>             <dbl>
 1    42     1 female Colon Cancer     Cancer     25-50k income medi…       37.5
 2    64     1 female ARF/MOSF w/Seps… ARF/MOSF   25-50k income medi…       37.5
 3    42     1 male   MOSF w/Malig     ARF/MOSF   >50k   income weal…       50  
 4    42     1 male   Lung Cancer      Cancer     >50k   income weal…       50  
 5    52     1 male   Cirrhosis        COPD/CHF/… 11-25k income poor        18  
 6    59     1 male   CHF              COPD/CHF/… >50k   income weal…       50  
 7    65     1 female COPD             COPD/CHF/… under… income very…       11  
 8    59     0 female ARF/MOSF w/Seps… ARF/MOSF   25-50k income medi…       37.5
 9    77     1 male   CHF              COPD/CHF/… >50k   income weal…       50  
10    61     1 male   Colon Cancer     Cancer     >50k   income weal…       50  
# ℹ 641 more rows
…
Making the regression line

Making models for comparison

clean_data

# A tibble: 651 × 8
     age death sex    diag_group       diag_class income income_class income_num
   <dbl> <dbl> <chr>  <chr>            <chr>      <chr>  <chr>             <dbl>
 1    42     1 female Colon Cancer     Cancer     25-50k income medi…       37.5
 2    64     1 female ARF/MOSF w/Seps… ARF/MOSF   25-50k income medi…       37.5
 3    42     1 male   MOSF w/Malig     ARF/MOSF   >50k   income weal…       50  
 4    42     1 male   Lung Cancer      Cancer     >50k   income weal…       50  
 5    52     1 male   Cirrhosis        COPD/CHF/… 11-25k income poor        18  
 6    59     1 male   CHF              COPD/CHF/… >50k   income weal…       50  
 7    65     1 female COPD             COPD/CHF/… under… income very…       11  
 8    59     0 female ARF/MOSF w/Seps… ARF/MOSF   25-50k income medi…       37.5
 9    77     1 male   CHF              COPD/CHF/… >50k   income weal…       50  
10    61     1 male   Colon Cancer     Cancer     >50k   income weal…       50  
# ℹ 641 more rows

Defining the columbs

df_income <- clean_data |>
  mutate(
    verypoor = case_when(income_class == "income very poor" ~ 1, .default = 0),
    poor     = case_when(income_class == "income poor" ~ 1, .default = 0),
    middle   = case_when(income_class == "income medium" ~ 1, .default = 0),
    wealthy  = case_when(income_class == "income wealthy" ~ 1, .default = 0))
df_income

# A tibble: 651 × 12
     age death sex    diag_group       diag_class income income_class income_num
   <dbl> <dbl> <chr>  <chr>            <chr>      <chr>  <chr>             <dbl>
 1    42     1 female Colon Cancer     Cancer     25-50k income medi…       37.5
 2    64     1 female ARF/MOSF w/Seps… ARF/MOSF   25-50k income medi…       37.5
 3    42     1 male   MOSF w/Malig     ARF/MOSF   >50k   income weal…       50  
 4    42     1 male   Lung Cancer      Cancer     >50k   income weal…       50  
 5    52     1 male   Cirrhosis        COPD/CHF/… 11-25k income poor        18  
 6    59     1 male   CHF              COPD/CHF/… >50k   income weal…       50  
 7    65     1 female COPD             COPD/CHF/… under… income very…       11  
 8    59     0 female ARF/MOSF w/Seps… ARF/MOSF   25-50k income medi…       37.5
 9    77     1 male   CHF              COPD/CHF/… >50k   income weal…       50  
10    61     1 male   Colon Cancer     Cancer     >50k   income weal…       50  
# ℹ 641 more rows
# ℹ 4 more variables: verypoor <dbl>, poor <dbl>, middle <dbl>, wealthy <dbl>
…
