integration
…
Loading the linear models from previous analysis

income <- read_rds(here("data/models/income.RDS"))
race <- read_rds(here("data/models/race.RDS"))
sex <- read_rds(here("data/models/sex.RDS"))
edu <- read_rds(here("data/models/edu.RDS"))
age <- read_rds(here("data/models/age.RDS"))
diagnosis <- read_rds(here("data/models/diagnosis.RDS"))

all_models <- bind_rows(income,race,sex,age,edu, diagnosis)
all_models

# A tibble: 21 × 2
   group           model 
   <glue>          <list>
 1 Income very low <lm>  
 2 Income low      <lm>  
 3 Income medium   <lm>  
 4 Income wealthy  <lm>  
 5 race_black      <lm>  
 6 race_hispanic   <lm>  
 7 race_white      <lm>  
 8 female          <lm>  
 9 male            <lm>  
10 age             <lm>  
# ℹ 11 more rows

all_models <- all_models |> mutate(
  nested_stats = map(.x=model,
                     .f= get_model_stats))
all_models

# A tibble: 21 × 3
   group           model  nested_stats    
   <glue>          <list> <list>          
 1 Income very low <lm>   <tibble [1 × 4]>
 2 Income low      <lm>   <tibble [1 × 4]>
 3 Income medium   <lm>   <tibble [1 × 4]>
 4 Income wealthy  <lm>   <tibble [1 × 4]>
 5 race_black      <lm>   <tibble [1 × 4]>
 6 race_hispanic   <lm>   <tibble [1 × 4]>
 7 race_white      <lm>   <tibble [1 × 4]>
 8 female          <lm>   <tibble [1 × 4]>
 9 male            <lm>   <tibble [1 × 4]>
10 age             <lm>   <tibble [1 × 4]>
# ℹ 11 more rows

all_models <- all_models |>
  unnest(nested_stats) |> 
  select(group,slope_est, slope_p, everything(),-model)

all_models |> arrange(slope_p)

# A tibble: 21 × 5
   group             slope_est     slope_p slope_std R_squared
   <glue>                <dbl>       <dbl>     <dbl>     <dbl>
 1 Lung Cancer         0.258   0.000000177  0.0490     0.0260 
 2 ARF/MOSF w/Sepsis  -0.139   0.00000453   0.0302     0.0199 
 3 MOSF w/Malig        0.223   0.0000247    0.0527     0.0167 
 4 age                 0.00346 0.000172     0.000918   0.0131 
 5 Coma                0.229   0.000251     0.0623     0.0124 
 6 CHF                -0.151   0.000371     0.0423     0.0116 
 7 Colon Cancer        0.220   0.00138      0.0687     0.00921
 8 COPD               -0.141   0.00236      0.0463     0.00824
 9 race_white          0.0647  0.0889       0.0380     0.00195
10 race_black         -0.0693  0.0925       0.0412     0.00188
# ℹ 11 more rows
…
